%YAML 1.1
%TAG !u! tag:unity3d.com,2011:
--- !u!1045 &1
EditorBuildSettings:
  m_ObjectHideFlags: 0
  serializedVersion: 2
  m_Scenes:
  - enabled: 0
    path: 
    guid: 00000000000000000000000000000000
  - enabled: 1
    path: Assets/Scenes/Title.unity
    guid: d81d3b5754572034a92dcab74d80924f
  - enabled: 1
    path: Assets/Scenes/Main.unity
    guid: e7f4278df0ec45743a895fd3767546a1
  m_configObjects: {}
